{
    "KPlugin": {
        "Category": "Accessibility",
        "Description": "Makes the cursor larger when the pointer is quickly moved back and forth",
        "Description[ar]": "يجعل المؤشر أكبر عند تحريك المؤشر بسرعة للخلف وللأمام",
        "Description[bg]": "Уголемява курсора, когато курсорът се мести бързо напред и назад",
        "Description[ca@valencia]": "Fa el cursor més gran quan el punter es mou ràpidament cap avant i cap arrere",
        "Description[ca]": "Fa el cursor més gran quan el punter es mou ràpidament cap endavant i cap enrere",
        "Description[eo]": "Pligrandigas la kursoron kiam la montrilo estas rapide movita tien kaj reen",
        "Description[es]": "Agranda el cursor cuando el puntero se mueve rápidamente adelante y atrás",
        "Description[eu]": "Kurtsorea handitzen du erakuslea aurrera eta atzera azkar mugitzen denean",
        "Description[fi]": "Suurentaa kohdistinta liikutettaessa osoitinta nopeasti edestakaisin",
        "Description[fr]": "Agrandit le curseur lorsque le pointeur est rapidement déplacé d’avant en arrière",
        "Description[gl]": "Aumenta o cursor ao movelo rapidamente dun lado a outro.",
        "Description[he]": "מגדיל את הסמן בעת הזזת המצביע הלוך ושוב במהירות",
        "Description[hu]": "Nagyobbá teszi a kurzort, amikor a mutatót gyorsan oda-vissza mozgatják",
        "Description[ia]": "Face le cursor plus grande quando le punctator es rapidemente movite retro e avante",
        "Description[is]": "Stækkar bendilinn þegar hann er færður snöggt fram og til baka",
        "Description[it]": "Ingrandisce il cursore quando il puntatore viene spostato rapidamente avanti e indietro",
        "Description[ka]": "კურსორის გადიდება, როცა მას წინ და უკან სწრაფად გააქანებთ",
        "Description[lt]": "Padaro pelės žymeklį didesnį, kai rodyklė judinama pirmyn ir atgal",
        "Description[lv]": "Padara kursoru lielāku, to ātri kustinot uz priekšu un atpakaļ",
        "Description[nl]": "Maakt de cursor groter wanneer de aanwijzer snel heen en weer wordt bewogen",
        "Description[pl]": "Powiększ wskaźnik, gdy przemieści się on szybko z jednego miejsca na drugie",
        "Description[ru]": "Увеличение размера курсора при его быстром перемещении вперёд и назад",
        "Description[sk]": "Zväčší kurzor pri rýchlom pohybe ukazovateľa tam a späť",
        "Description[sl]": "Poveča kazalec, kadar se kazalec hitro premika naprej in nazaj",
        "Description[ta]": "சுட்டியை வேகமாக ஆட்டும்போது சுட்டிக்குறியைப் பெரிதாக்கும்",
        "Description[tr]": "İşaretçi tez ileri geri hareket ettirildiğinde imleci büyütür",
        "Description[uk]": "Робити курсор більшим, коли вказівник швидко рухається туди-сюди",
        "Description[x-test]": "xxMakes the cursor larger when the pointer is quickly moved back and forthxx",
        "Description[zh_CN]": "快速往返移动指针后加大显示光标",
        "Description[zh_TW]": "快速來回移動游標時讓游標變大",
        "EnabledByDefault": false,
        "License": "GPL",
        "Name": "Shake Cursor",
        "Name[ar]": "اهتزاز المؤشر",
        "Name[bg]": "Разклащане на курсора",
        "Name[ca@valencia]": "Sacsa el cursor",
        "Name[ca]": "Sacseja el cursor",
        "Name[eo]": "Skui Kursoron",
        "Name[es]": "Sacudir el cursor",
        "Name[eu]": "Astindu kurtsorea",
        "Name[fi]": "Ravista kohdistinta",
        "Name[fr]": "Agiter le pointeur",
        "Name[gl]": "Axitar o cursor",
        "Name[he]": "ניעור סמן",
        "Name[hu]": "Kurzor rázása",
        "Name[ia]": "Agita Cursor",
        "Name[is]": "Hrista bendil",
        "Name[it]": "Scuoti il cursore",
        "Name[ka]": "კურსორის ჯანჯღარი",
        "Name[lt]": "Pakratyti pelės žymeklį",
        "Name[lv]": "Pakratīt kursoru",
        "Name[nl]": "Cursor schudden",
        "Name[pl]": "Trzęsący się wskaźnik",
        "Name[ru]": "Увеличение курсора",
        "Name[sk]": "Zatriasť kurzorom",
        "Name[sl]": "Stresaj kazalko",
        "Name[ta]": "சுட்டிக்குறியை ஆட்டு",
        "Name[tr]": "İmleci Salla",
        "Name[uk]": "Бовтанка курсора",
        "Name[x-test]": "xxShake Cursorxx",
        "Name[zh_CN]": "抖动后放大光标",
        "Name[zh_TW]": "甩動游標"
    }
}
